…
This dataset contains information about 52179 homicides in 50 U.S. cities in 28 states reported from 2007 to 2017. The victim's name, rage, age, and sex are reported for each homicide, as well as the status of the case (closed without arrest, closed by arrest, or open).

*Create a city\_state variable (e.g. “Baltimore, MD”) and then summarize within cities to obtain the total number of homicides and the number of unsolved homicides (those for which the disposition is “Closed without arrest” or “Open/No arrest”).*

``` r
homicide_data %>% 
  mutate(city_state = str_c(city, state, sep = ", ")) %>%
  select(city_state, disposition) %>% 
  group_by(city_state) %>%
  mutate(unsolved = ifelse(disposition == "Open/No arrest", 1, 0)) %>% 
  summarize(total = n(),
            unsolved = sum(unsolved))
```

    ## # A tibble: 51 x 3
    ##    city_state      total unsolved
    ##    <chr>           <int>    <dbl>
    ##  1 Albuquerque, NM   378       94
    ##  2 Atlanta, GA       973      315
    ##  3 Baltimore, MD    2827     1673
    ##  4 Baton Rouge, LA   424      180
    ##  5 Birmingham, AL    800      283
    ##  6 Boston, MA        614      310
    ##  7 Buffalo, NY       521      311
    ##  8 Charlotte, NC     687      162
    ##  9 Chicago, IL      5535     3686
    ## 10 Cincinnati, OH    694      260
    ## # ... with 41 more rows
